<?xml version="1.0" encoding="UTF-8" standalone="no"?>
<!-- Created with Inkscape (http://www.inkscape.org/) -->

<svg
   xmlns:dc="http://purl.org/dc/elements/1.1/"
   xmlns:cc="http://creativecommons.org/ns#"
   xmlns:rdf="http://www.w3.org/1999/02/22-rdf-syntax-ns#"
   xmlns:svg="http://www.w3.org/2000/svg"
   xmlns="http://www.w3.org/2000/svg"
   xmlns:sodipodi="http://sodipodi.sourceforge.net/DTD/sodipodi-0.dtd"
   xmlns:inkscape="http://www.inkscape.org/namespaces/inkscape"
   width="210mm"
   height="297mm"
   viewBox="0 0 210 297"
   version="1.1"
   id="svg8"
   inkscape:version="0.92.3 (2405546, 2018-03-11)"
   sodipodi:docname="arch_firmware.svg">
  <defs
     id="defs2">
    <marker
       inkscape:stockid="Arrow1Lend"
       orient="auto"
       refY="0.0"
       refX="0.0"
       id="marker15752"
       style="overflow:visible;"
       inkscape:isstock="true">
      <path
         id="path15750"
         d="M 0.0,0.0 L 5.0,-5.0 L -12.5,0.0 L 5.0,5.0 L 0.0,0.0 z "
         style="fill-rule:evenodd;stroke:#000000;stroke-width:1pt;stroke-opacity:1;fill:#000000;fill-opacity:1"
         transform="scale(0.8) rotate(180) translate(12.5,0)" />
    </marker>
    <marker
       inkscape:isstock="true"
       style="overflow:visible;"
       id="marker12410"
       refX="0.0"
       refY="0.0"
       orient="auto"
       inkscape:stockid="Arrow1Lend"
       inkscape:collect="always">
      <path
         transform="scale(0.8) rotate(180) translate(12.5,0)"
         style="fill-rule:evenodd;stroke:#000000;stroke-width:1pt;stroke-opacity:1;fill:#000000;fill-opacity:1"
         d="M 0.0,0.0 L 5.0,-5.0 L -12.5,0.0 L 5.0,5.0 L 0.0,0.0 z "
         id="path12408" />
    </marker>
    <marker
       inkscape:isstock="true"
       style="overflow:visible;"
       id="marker10862"
       refX="0.0"
       refY="0.0"
       orient="auto"
       inkscape:stockid="Arrow1Lend"
       inkscape:collect="always">
      <path
         transform="scale(0.8) rotate(180) translate(12.5,0)"
         style="fill-rule:evenodd;stroke:#000000;stroke-width:1pt;stroke-opacity:1;fill:#000000;fill-opacity:1"
         d="M 0.0,0.0 L 5.0,-5.0 L -12.5,0.0 L 5.0,5.0 L 0.0,0.0 z "
         id="path10860" />
    </marker>
    <marker
       inkscape:stockid="Arrow1Lend"
       orient="auto"
       refY="0.0"
       refX="0.0"
       id="marker7416"
       style="overflow:visible;"
       inkscape:isstock="true">
      <path
         id="path7414"
         d="M 0.0,0.0 L 5.0,-5.0 L -12.5,0.0 L 5.0,5.0 L 0.0,0.0 z "
         style="fill-rule:evenodd;stroke:#000000;stroke-width:1pt;stroke-opacity:1;fill:#000000;fill-opacity:1"
         transform="scale(0.8) rotate(180) translate(12.5,0)" />
    </marker>
    <marker
       inkscape:isstock="true"
       style="overflow:visible;"
       id="marker6807"
       refX="0.0"
       refY="0.0"
       orient="auto"
       inkscape:stockid="Arrow1Lend"
       inkscape:collect="always">
      <path
         transform="scale(0.8) rotate(180) translate(12.5,0)"
         style="fill-rule:evenodd;stroke:#000000;stroke-width:1pt;stroke-opacity:1;fill:#000000;fill-opacity:1"
         d="M 0.0,0.0 L 5.0,-5.0 L -12.5,0.0 L 5.0,5.0 L 0.0,0.0 z "
         id="path6805" />
    </marker>
    <marker
       inkscape:stockid="Arrow1Lend"
       orient="auto"
       refY="0.0"
       refX="0.0"
       id="marker5551"
       style="overflow:visible;"
       inkscape:isstock="true"
       inkscape:collect="always">
      <path
         id="path5549"
         d="M 0.0,0.0 L 5.0,-5.0 L -12.5,0.0 L 5.0,5.0 L 0.0,0.0 z "
         style="fill-rule:evenodd;stroke:#000000;stroke-width:1pt;stroke-opacity:1;fill:#000000;fill-opacity:1"
         transform="scale(0.8) rotate(180) translate(12.5,0)" />
    </marker>
    <marker
       inkscape:isstock="true"
       style="overflow:visible;"
       id="marker5515"
       refX="0.0"
       refY="0.0"
       orient="auto"
       inkscape:stockid="Arrow1Lend"
       inkscape:collect="always">
      <path
         transform="scale(0.8) rotate(180) translate(12.5,0)"
         style="fill-rule:evenodd;stroke:#000000;stroke-width:1pt;stroke-opacity:1;fill:#000000;fill-opacity:1"
         d="M 0.0,0.0 L 5.0,-5.0 L -12.5,0.0 L 5.0,5.0 L 0.0,0.0 z "
         id="path5513" />
    </marker>
    <marker
       inkscape:stockid="Arrow1Lend"
       orient="auto"
       refY="0.0"
       refX="0.0"
       id="Arrow1Lend"
       style="overflow:visible;"
       inkscape:isstock="true"
       inkscape:collect="always">
      <path
         id="path4884"
         d="M 0.0,0.0 L 5.0,-5.0 L -12.5,0.0 L 5.0,5.0 L 0.0,0.0 z "
         style="fill-rule:evenodd;stroke:#000000;stroke-width:1pt;stroke-opacity:1;fill:#000000;fill-opacity:1"
         transform="scale(0.8) rotate(180) translate(12.5,0)" />
    </marker>
    <marker
       inkscape:stockid="Arrow1Lend"
       orient="auto"
       refY="0"
       refX="0"
       id="marker5551-6"
       style="overflow:visible"
       inkscape:isstock="true">
      <path
         inkscape:connector-curvature="0"
         id="path5549-1"
         d="M 0,0 5,-5 -12.5,0 5,5 Z"
         style="fill:#000000;fill-opacity:1;fill-rule:evenodd;stroke:#000000;stroke-width:1.00000003pt;stroke-opacity:1"
         transform="matrix(-0.8,0,0,-0.8,-10,0)" />
    </marker>
    <marker
       inkscape:stockid="Arrow1Lend"
       orient="auto"
       refY="0"
       refX="0"
       id="marker5551-6-9"
       style="overflow:visible"
       inkscape:isstock="true">
      <path
         inkscape:connector-curvature="0"
         id="path5549-1-3"
         d="M 0,0 5,-5 -12.5,0 5,5 Z"
         style="fill:#000000;fill-opacity:1;fill-rule:evenodd;stroke:#000000;stroke-width:1.00000003pt;stroke-opacity:1"
         transform="matrix(-0.8,0,0,-0.8,-10,0)" />
    </marker>
    <marker
       inkscape:stockid="Arrow1Lend"
       orient="auto"
       refY="0"
       refX="0"
       id="marker7416-8"
       style="overflow:visible"
       inkscape:isstock="true">
      <path
         inkscape:connector-curvature="0"
         id="path7414-8"
         d="M 0,0 5,-5 -12.5,0 5,5 Z"
         style="fill:#000000;fill-opacity:1;fill-rule:evenodd;stroke:#000000;stroke-width:1.00000003pt;stroke-opacity:1"
         transform="matrix(-0.8,0,0,-0.8,-10,0)" />
    </marker>
    <marker
       inkscape:stockid="Arrow1Lend"
       orient="auto"
       refY="0"
       refX="0"
       id="marker7416-8-3"
       style="overflow:visible"
       inkscape:isstock="true">
      <path
         inkscape:connector-curvature="0"
         id="path7414-8-1"
         d="M 0,0 5,-5 -12.5,0 5,5 Z"
         style="fill:#000000;fill-opacity:1;fill-rule:evenodd;stroke:#000000;stroke-width:1.00000003pt;stroke-opacity:1"
         transform="matrix(-0.8,0,0,-0.8,-10,0)" />
    </marker>
    <marker
       inkscape:stockid="Arrow1Lend"
       orient="auto"
       refY="0"
       refX="0"
       id="marker5551-6-9-9"
       style="overflow:visible"
       inkscape:isstock="true">
      <path
         inkscape:connector-curvature="0"
         id="path5549-1-3-2"
         d="M 0,0 5,-5 -12.5,0 5,5 Z"
         style="fill:#000000;fill-opacity:1;fill-rule:evenodd;stroke:#000000;stroke-width:1.00000003pt;stroke-opacity:1"
         transform="matrix(-0.8,0,0,-0.8,-10,0)" />
    </marker>
    <marker
       inkscape:stockid="Arrow1Lend"
       orient="auto"
       refY="0"
       refX="0"
       id="marker7416-8-3-5"
       style="overflow:visible"
       inkscape:isstock="true">
      <path
         inkscape:connector-curvature="0"
         id="path7414-8-1-8"
         d="M 0,0 5,-5 -12.5,0 5,5 Z"
         style="fill:#000000;fill-opacity:1;fill-rule:evenodd;stroke:#000000;stroke-width:1.00000003pt;stroke-opacity:1"
         transform="matrix(-0.8,0,0,-0.8,-10,0)" />
    </marker>
    <marker
       inkscape:stockid="Arrow1Lend"
       orient="auto"
       refY="0"
       refX="0"
       id="marker7416-8-7"
       style="overflow:visible"
       inkscape:isstock="true">
      <path
         inkscape:connector-curvature="0"
         id="path7414-8-9"
         d="M 0,0 5,-5 -12.5,0 5,5 Z"
         style="fill:#000000;fill-opacity:1;fill-rule:evenodd;stroke:#000000;stroke-width:1.00000003pt;stroke-opacity:1"
         transform="matrix(-0.8,0,0,-0.8,-10,0)" />
    </marker>
    <marker
       inkscape:stockid="Arrow1Lend"
       orient="auto"
       refY="0"
       refX="0"
       id="marker7416-6"
       style="overflow:visible"
       inkscape:isstock="true">
      <path
         inkscape:connector-curvature="0"
         id="path7414-0"
         d="M 0,0 5,-5 -12.5,0 5,5 Z"
         style="fill:#000000;fill-opacity:1;fill-rule:evenodd;stroke:#000000;stroke-width:1.00000003pt;stroke-opacity:1"
         transform="matrix(-0.8,0,0,-0.8,-10,0)" />
    </marker>
    <marker
       inkscape:isstock="true"
       style="overflow:visible"
       id="marker10862-0"
       refX="0"
       refY="0"
       orient="auto"
       inkscape:stockid="Arrow1Lend">
      <path
         inkscape:connector-curvature="0"
         transform="matrix(-0.8,0,0,-0.8,-10,0)"
         style="fill:#000000;fill-opacity:1;fill-rule:evenodd;stroke:#000000;stroke-width:1.00000003pt;stroke-opacity:1"
         d="M 0,0 5,-5 -12.5,0 5,5 Z"
         id="path10860-1" />
    </marker>
    <marker
       inkscape:isstock="true"
       style="overflow:visible"
       id="marker12410-5"
       refX="0"
       refY="0"
       orient="auto"
       inkscape:stockid="Arrow1Lend">
      <path
         inkscape:connector-curvature="0"
         transform="matrix(-0.8,0,0,-0.8,-10,0)"
         style="fill:#000000;fill-opacity:1;fill-rule:evenodd;stroke:#000000;stroke-width:1.00000003pt;stroke-opacity:1"
         d="M 0,0 5,-5 -12.5,0 5,5 Z"
         id="path12408-7" />
    </marker>
    <marker
       inkscape:isstock="true"
       style="overflow:visible"
       id="marker12410-5-8"
       refX="0"
       refY="0"
       orient="auto"
       inkscape:stockid="Arrow1Lend">
      <path
         inkscape:connector-curvature="0"
         transform="matrix(-0.8,0,0,-0.8,-10,0)"
         style="fill:#000000;fill-opacity:1;fill-rule:evenodd;stroke:#000000;stroke-width:1.00000003pt;stroke-opacity:1"
         d="M 0,0 5,-5 -12.5,0 5,5 Z"
         id="path12408-7-1" />
    </marker>
    <marker
       inkscape:isstock="true"
       style="overflow:visible"
       id="marker12410-5-8-9"
       refX="0"
       refY="0"
       orient="auto"
       inkscape:stockid="Arrow1Lend">
      <path
         inkscape:connector-curvature="0"
         transform="matrix(-0.8,0,0,-0.8,-10,0)"
         style="fill:#000000;fill-opacity:1;fill-rule:evenodd;stroke:#000000;stroke-width:1.00000003pt;stroke-opacity:1"
         d="M 0,0 5,-5 -12.5,0 5,5 Z"
         id="path12408-7-1-7" />
    </marker>
  </defs>
  <sodipodi:namedview
     id="base"
     pagecolor="#ffffff"
     bordercolor="#666666"
     borderopacity="1.0"
     inkscape:pageopacity="0.0"
     inkscape:pageshadow="2"
     inkscape:zoom="0.70710678"
     inkscape:cx="380.6822"
     inkscape:cy="1767.5839"
     inkscape:document-units="mm"
     inkscape:current-layer="layer1"
     showgrid="false"
     inkscape:window-width="1918"
     inkscape:window-height="1059"
     inkscape:window-x="0"
     inkscape:window-y="19"
     inkscape:window-maximized="0"
     inkscape:measure-start="0,0"
     inkscape:measure-end="0,0"
     showguides="false" />
  <metadata
     id="metadata5">
    <rdf:RDF>
      <cc:Work
         rdf:about="">
        <dc:format>image/svg+xml</dc:format>
        <dc:type
           rdf:resource="http://purl.org/dc/dcmitype/StillImage" />
        <dc:title></dc:title>
      </cc:Work>
    </rdf:RDF>
  </metadata>
  <g
     inkscape:label="Capa 1"
     inkscape:groupmode="layer"
     id="layer1">
    <flowRoot
       xml:space="preserve"
       id="flowRoot4591"
       style="fill:black;fill-opacity:1;stroke:none;font-family:sans-serif;font-style:normal;font-weight:normal;font-size:40px;line-height:1.25;letter-spacing:0px;word-spacing:0px"><flowRegion
         id="flowRegion4593"><rect
           id="rect4595"
           width="135.86552"
           height="83.337585"
           x="318.19806"
           y="414.90784" /></flowRegion><flowPara
         id="flowPara4597"></flowPara></flowRoot>    <g
       id="g4589"
       transform="translate(-63.841988,-279.99645)"
       inkscape:export-xdpi="300.02121"
       inkscape:export-ydpi="300.02121">
      <ellipse
         style="fill:none;fill-opacity:1;stroke:#000000;stroke-width:0.26458332;stroke-opacity:1"
         ry="8.4099703"
         rx="15.119047"
         cy="100.62007"
         cx="102.15979"
         id="path10" />
      <text
         id="text4522"
         y="102.91821"
         x="92.908333"
         style="font-style:normal;font-weight:normal;font-size:6.11598253px;line-height:1.25;font-family:sans-serif;letter-spacing:0px;word-spacing:0px;fill:#000000;fill-opacity:1;stroke:none;stroke-width:0.15289955"
         xml:space="preserve"><tspan
           style="stroke-width:0.15289955"
           y="102.91821"
           x="92.908333"
           id="tspan4520"
           sodipodi:role="line">ACCEL</tspan></text>
    </g>
    <g
       id="g4602"
       transform="translate(-64.313688,-281.48586)"
       inkscape:export-xdpi="300.02121"
       inkscape:export-ydpi="300.02121">
      <ellipse
         style="fill:none;fill-opacity:1;stroke:#000000;stroke-width:0.26458332;stroke-opacity:1"
         ry="8.4099703"
         rx="15.119047"
         cy="122.07209"
         cx="102.6315"
         id="path10-5" />
      <text
         id="text4522-3"
         y="123.96933"
         x="94.449112"
         style="font-style:normal;font-weight:normal;font-size:6.11598253px;line-height:1.25;font-family:sans-serif;letter-spacing:0px;word-spacing:0px;fill:#000000;fill-opacity:1;stroke:none;stroke-width:0.15289955"
         xml:space="preserve"><tspan
           style="stroke-width:0.15289955"
           y="123.96933"
           x="94.449112"
           id="tspan4520-5"
           sodipodi:role="line">GYRO</tspan></text>
    </g>
    <g
       id="g4607"
       transform="translate(-66.184588,-282.11344)"
       inkscape:export-xdpi="300.02121"
       inkscape:export-ydpi="300.02121">
      <ellipse
         style="fill:none;fill-opacity:1;stroke:#000000;stroke-width:0.26458332;stroke-opacity:1"
         ry="8.4099703"
         rx="15.119047"
         cy="142.65184"
         cx="104.50239"
         id="path10-6" />
      <text
         id="text4522-2"
         y="144.94998"
         x="97.656357"
         style="font-style:normal;font-weight:normal;font-size:6.11598253px;line-height:1.25;font-family:sans-serif;letter-spacing:0px;word-spacing:0px;fill:#000000;fill-opacity:1;stroke:none;stroke-width:0.15289955"
         xml:space="preserve"><tspan
           style="stroke-width:0.15289955"
           y="144.94998"
           x="97.656357"
           id="tspan4520-9"
           sodipodi:role="line">MAG</tspan></text>
    </g>
    <g
       id="g4664"
       transform="translate(-66.585488,-281.35829)"
       inkscape:export-xdpi="300.02121"
       inkscape:export-ydpi="300.02121">
      <ellipse
         style="fill:none;fill-opacity:1;stroke:#000000;stroke-width:0.26458332;stroke-opacity:1"
         ry="8.4099703"
         rx="15.119047"
         cy="161.76161"
         cx="104.90328"
         id="path10-1" />
      <text
         id="text4522-27"
         y="163.65884"
         x="96.720909"
         style="font-style:normal;font-weight:normal;font-size:6.11598253px;line-height:1.25;font-family:sans-serif;letter-spacing:0px;word-spacing:0px;fill:#000000;fill-opacity:1;stroke:none;stroke-width:0.15289955"
         xml:space="preserve"><tspan
           style="stroke-width:0.15289955"
           y="163.65884"
           x="96.720909"
           id="tspan4520-0"
           sodipodi:role="line">BARO</tspan></text>
    </g>
    <ellipse
       id="path10-1-9"
       cx="38.317772"
       cy="-99.452675"
       rx="15.119047"
       ry="8.4099703"
       style="fill:none;fill-opacity:1;stroke:#000000;stroke-width:0.26458332;stroke-opacity:1"
       inkscape:export-xdpi="300.02121"
       inkscape:export-ydpi="300.02121" />
    <text
       xml:space="preserve"
       style="font-style:normal;font-weight:normal;font-size:6.11598253px;line-height:1.25;font-family:sans-serif;letter-spacing:0px;word-spacing:0px;fill:#000000;fill-opacity:1;stroke:none;stroke-width:0.15289955"
       x="28.665428"
       y="-97.226326"
       id="text4522-27-3"
       inkscape:export-xdpi="300.02121"
       inkscape:export-ydpi="300.02121"><tspan
         sodipodi:role="line"
         id="tspan4520-0-6"
         x="28.665428"
         y="-97.226326"
         style="stroke-width:0.15289955">LASER</tspan></text>
    <g
       transform="translate(-70.728188,-328.50587)"
       id="g4837"
       inkscape:export-xdpi="300.02121"
       inkscape:export-ydpi="300.02121">
      <ellipse
         id="path10-1-0-6-7"
         cx="63.481747"
         cy="158.8497"
         rx="15.119047"
         ry="8.4099703"
         style="fill:none;fill-opacity:1;stroke:#000000;stroke-width:0.26458332;stroke-opacity:1" />
      <text
         id="text4522-27-3-2-5"
         y="152.44453"
         x="55.458282"
         style="font-style:normal;font-weight:normal;font-size:4.79644203px;line-height:1.25;font-family:sans-serif;letter-spacing:0px;word-spacing:0px;fill:#000000;fill-opacity:1;stroke:none;stroke-width:0.11991104"
         xml:space="preserve"
         transform="scale(0.9486865,1.054089)"><tspan
           style="stroke-width:0.11991104"
           y="152.44453"
           x="55.458282"
           id="tspan4520-0-6-0-9"
           sodipodi:role="line">MPU9250</tspan></text>
    </g>
    <g
       transform="translate(-70.728188,-259.97675)"
       id="g4832"
       inkscape:export-xdpi="300.02121"
       inkscape:export-ydpi="300.02121">
      <ellipse
         id="path10-1-0-6-7-2"
         cx="63.481747"
         cy="140.38007"
         rx="15.119047"
         ry="8.4099703"
         style="fill:none;fill-opacity:1;stroke:#000000;stroke-width:0.26458332;stroke-opacity:1" />
      <text
         id="text4522-27-3-2-5-2"
         y="134.92264"
         x="57.027431"
         style="font-style:normal;font-weight:normal;font-size:4.79644203px;line-height:1.25;font-family:sans-serif;letter-spacing:0px;word-spacing:0px;fill:#000000;fill-opacity:1;stroke:none;stroke-width:0.11991104"
         xml:space="preserve"
         transform="scale(0.9486865,1.054089)"><tspan
           style="stroke-width:0.11991104"
           y="134.92264"
           x="57.027431"
           id="tspan4520-0-6-0-9-8"
           sodipodi:role="line">BME280</tspan></text>
    </g>
    <flowRoot
       style="font-style:normal;font-weight:normal;font-size:40px;line-height:1.25;font-family:sans-serif;letter-spacing:0px;word-spacing:0px;fill:#000000;fill-opacity:1;stroke:none"
       id="flowRoot4787"
       xml:space="preserve"
       transform="translate(-0.9708519)"><flowRegion
         id="flowRegion4789"><rect
           y="488.64896"
           x="169.20055"
           height="77.276672"
           width="131.31982"
           id="rect4791" /></flowRegion><flowPara
         id="flowPara4793"></flowPara></flowRoot>    <g
       transform="translate(-70.728188,-251.64471)"
       id="g4827"
       inkscape:export-xdpi="300.02121"
       inkscape:export-ydpi="300.02121">
      <ellipse
         id="path10-1-0-6-7-2-9"
         cx="63.481747"
         cy="112.18311"
         rx="15.119047"
         ry="8.4099703"
         style="fill:none;fill-opacity:1;stroke:#000000;stroke-width:0.26458332;stroke-opacity:1" />
      <text
         id="text4522-27-3-2-5-2-7"
         y="108.17258"
         x="57.768677"
         style="font-style:normal;font-weight:normal;font-size:4.79644203px;line-height:1.25;font-family:sans-serif;letter-spacing:0px;word-spacing:0px;fill:#000000;fill-opacity:1;stroke:none;stroke-width:0.11991104"
         xml:space="preserve"
         transform="scale(0.9486865,1.054089)"><tspan
           style="stroke-width:0.11991104"
           y="108.17258"
           x="57.768677"
           id="tspan4520-0-6-0-9-8-3"
           sodipodi:role="line">AK8963</tspan></text>
    </g>
    <flowRoot
       style="font-style:normal;font-weight:normal;font-size:40px;line-height:1.25;font-family:sans-serif;letter-spacing:0px;word-spacing:0px;fill:#000000;fill-opacity:1;stroke:none"
       id="flowRoot4816"
       xml:space="preserve"
       transform="translate(-0.9708519)"><flowRegion
         id="flowRegion4818"><rect
           y="425.00934"
           x="159.6041"
           height="72.73098"
           width="155.56349"
           id="rect4820" /></flowRegion><flowPara
         id="flowPara4822"></flowPara></flowRoot>    <g
       id="g4844"
       transform="translate(-69.757288,-279.65806)"
       inkscape:export-xdpi="300.02121"
       inkscape:export-ydpi="300.02121">
      <text
         transform="matrix(0.94868651,0,0,1.054089,-0.9708519,0)"
         xml:space="preserve"
         style="font-style:normal;font-weight:normal;font-size:4.79644203px;line-height:1.25;font-family:sans-serif;letter-spacing:0px;word-spacing:0px;fill:#000000;fill-opacity:1;stroke:none;stroke-width:0.11991104"
         x="56.438416"
         y="172.70436"
         id="text4522-27-3-2"><tspan
           sodipodi:role="line"
           id="tspan4520-0-6-0"
           x="56.438416"
           y="172.70436"
           style="stroke-width:0.11991104">VL53L0X</tspan></text>
      <ellipse
         style="fill:none;fill-opacity:1;stroke:#000000;stroke-width:0.26458332;stroke-opacity:1"
         ry="8.4099703"
         rx="15.119047"
         cy="180.20535"
         cx="62.510891"
         id="path10-1-0-6" />
    </g>
    <path
       style="display:inline;fill:none;fill-rule:evenodd;stroke:#000000;stroke-width:0.26458332px;stroke-linecap:butt;stroke-linejoin:miter;stroke-opacity:1;marker-end:url(#Arrow1Lend)"
       d="m 8.160912,-169.85843 15.4025,-6.52009"
       id="path5163"
       inkscape:connector-type="polyline"
       inkscape:connector-curvature="0"
       inkscape:export-xdpi="300.02121"
       inkscape:export-ydpi="300.02121" />
    <path
       style="fill:none;fill-rule:evenodd;stroke:#000000;stroke-width:0.26458332px;stroke-linecap:butt;stroke-linejoin:miter;stroke-opacity:1;marker-end:url(#marker5515)"
       d="m 8.160912,-169.85843 15.119,8.12649"
       id="path5505"
       inkscape:connector-type="polyline"
       inkscape:connector-curvature="0"
       inkscape:export-xdpi="300.02121"
       inkscape:export-ydpi="300.02121" />
    <path
       style="fill:none;fill-rule:evenodd;stroke:#000000;stroke-width:0.26458332px;stroke-linecap:butt;stroke-linejoin:miter;stroke-opacity:1;marker-end:url(#marker5551)"
       d="m 7.735612,-139.42189 15.2136,-0.0945"
       id="path5541"
       inkscape:connector-type="polyline"
       inkscape:connector-curvature="0"
       inkscape:export-xdpi="300.02121"
       inkscape:export-ydpi="300.02121" />
    <path
       style="fill:none;fill-rule:evenodd;stroke:#000000;stroke-width:0.26458332px;stroke-linecap:butt;stroke-linejoin:miter;stroke-opacity:1;marker-end:url(#marker5551-6)"
       d="m 7.810012,-119.47187 15.2135,-0.0945"
       id="path5541-2"
       inkscape:connector-type="polyline"
       inkscape:connector-curvature="0"
       inkscape:export-xdpi="300.02121"
       inkscape:export-ydpi="300.02121" />
    <path
       style="fill:none;fill-rule:evenodd;stroke:#000000;stroke-width:0.26458332px;stroke-linecap:butt;stroke-linejoin:miter;stroke-opacity:1;marker-end:url(#marker5551-6-9)"
       d="m 7.810012,-99.155596 15.2135,-0.0945"
       id="path5541-2-1"
       inkscape:connector-type="polyline"
       inkscape:connector-curvature="0"
       inkscape:export-xdpi="300.02121"
       inkscape:export-ydpi="300.02121" />
    <rect
       style="fill:none;fill-opacity:1;stroke:#000000;stroke-width:0.26499999;stroke-miterlimit:4;stroke-dasharray:none;stroke-opacity:1"
       id="rect6669"
       width="2.6726952"
       height="34.210499"
       x="75.650658"
       y="-146.47499"
       inkscape:export-xdpi="300.02121"
       inkscape:export-ydpi="300.02121" />
    <rect
       style="fill:none;fill-opacity:1;stroke:#000000;stroke-width:0.26499999;stroke-miterlimit:4;stroke-dasharray:none;stroke-opacity:1"
       id="rect6669-9"
       width="2.6726952"
       height="34.210499"
       x="80.261009"
       y="-146.47499"
       inkscape:export-xdpi="300.02121"
       inkscape:export-ydpi="300.02121" />
    <rect
       style="fill:none;fill-opacity:1;stroke:#000000;stroke-width:0.26499999;stroke-miterlimit:4;stroke-dasharray:none;stroke-opacity:1"
       id="rect6669-9-4"
       width="2.6726952"
       height="34.210499"
       x="84.871483"
       y="-146.47499"
       inkscape:export-xdpi="300.02121"
       inkscape:export-ydpi="300.02121" />
    <rect
       style="fill:none;fill-opacity:1;stroke:#000000;stroke-width:0.26499999;stroke-miterlimit:4;stroke-dasharray:none;stroke-opacity:1"
       id="rect6669-9-7"
       width="2.6726952"
       height="34.210499"
       x="89.481834"
       y="-146.47499"
       inkscape:export-xdpi="300.02121"
       inkscape:export-ydpi="300.02121" />
    <rect
       style="fill:none;fill-opacity:1;stroke:#000000;stroke-width:0.26499999;stroke-miterlimit:4;stroke-dasharray:none;stroke-opacity:1"
       id="rect6669-9-8"
       width="2.6726952"
       height="34.210499"
       x="94.092308"
       y="-146.47499"
       inkscape:export-xdpi="300.02121"
       inkscape:export-ydpi="300.02121" />
    <path
       style="fill:none;fill-rule:evenodd;stroke:#000000;stroke-width:0.27116984px;stroke-linecap:butt;stroke-linejoin:miter;stroke-opacity:1;marker-end:url(#marker6807)"
       d="m 67.953312,-130.02452 7.790558,0.0334"
       id="path6797"
       inkscape:connector-type="polyline"
       inkscape:connector-curvature="0"
       inkscape:export-xdpi="300.02121"
       inkscape:export-ydpi="300.02121" />
    <text
       xml:space="preserve"
       style="font-style:normal;font-weight:normal;font-size:3.39396501px;line-height:1.25;font-family:sans-serif;letter-spacing:0px;word-spacing:0px;fill:#000000;fill-opacity:1;stroke:none;stroke-width:0.0848491"
       x="75.039818"
       y="-147.68758"
       id="text6883"
       inkscape:export-xdpi="300.02121"
       inkscape:export-ydpi="300.02121"><tspan
         sodipodi:role="line"
         id="tspan6881"
         x="75.039818"
         y="-147.68758"
         style="stroke-width:0.0848491">EventUpdate</tspan></text>
    <ellipse
       style="fill:none;fill-opacity:1;stroke:#000000;stroke-width:0.26458332;stroke-opacity:1"
       ry="8.4099703"
       rx="15.119047"
       cy="-129.36971"
       cx="123.74586"
       id="path10-1-0-6-7-5"
       inkscape:export-xdpi="300.02121"
       inkscape:export-ydpi="300.02121" />
    <text
       transform="scale(0.9486865,1.054089)"
       xml:space="preserve"
       style="font-style:normal;font-weight:normal;font-size:4.79644203px;line-height:1.25;font-family:sans-serif;letter-spacing:0px;word-spacing:0px;fill:#000000;fill-opacity:1;stroke:none;stroke-width:0.11991104"
       x="123.56386"
       y="-120.98298"
       id="text4522-27-3-2-5-6"
       inkscape:export-xdpi="300.02121"
       inkscape:export-ydpi="300.02121"><tspan
         sodipodi:role="line"
         id="tspan4520-0-6-0-9-9"
         x="123.56386"
         y="-120.98298"
         style="stroke-width:0.11991104">MITM</tspan></text>
    <g
       id="g4837-3"
       transform="translate(132.47971,-244.40907)"
       inkscape:export-xdpi="300.02121"
       inkscape:export-ydpi="300.02121">
      <ellipse
         style="fill:none;fill-opacity:1;stroke:#000000;stroke-width:0.26458332;stroke-opacity:1"
         ry="8.4099703"
         rx="15.119047"
         cy="115.03937"
         cx="33.810616"
         id="path10-1-0-6-7-7" />
      <text
         transform="scale(0.9486865,1.054089)"
         xml:space="preserve"
         style="font-style:normal;font-weight:normal;font-size:4.79644203px;line-height:1.25;font-family:sans-serif;letter-spacing:0px;word-spacing:0px;fill:#000000;fill-opacity:1;stroke:none;stroke-width:0.11991104"
         x="24.18227"
         y="110.88226"
         id="text4522-27-3-2-5-4"><tspan
           sodipodi:role="line"
           id="tspan4520-0-6-0-9-5"
           x="24.18227"
           y="110.88226"
           style="stroke-width:0.11991104"> MOTORS</tspan></text>
      <flowRoot
         transform="matrix(0.26458333,0,0,0.26458333,-1713.3843,-40.254466)"
         style="font-style:normal;font-weight:normal;font-size:40px;line-height:1.25;font-family:sans-serif;letter-spacing:0px;word-spacing:0px;fill:#000000;fill-opacity:1;stroke:none"
         id="flowRoot7170"
         xml:space="preserve"><flowRegion
           id="flowRegion7172"><rect
             y="677.51971"
             x="6646.4287"
             height="145"
             width="202.14285"
             id="rect7174" /></flowRegion><flowPara
           id="flowPara7176"></flowPara></flowRoot>      <rect
         y="102.05618"
         x="61.246288"
         height="25.966377"
         width="28.612207"
         id="rect7178"
         style="fill:none;fill-opacity:1;stroke:#000000;stroke-width:0.1899927;stroke-miterlimit:4;stroke-dasharray:none;stroke-opacity:1" />
      <path
         inkscape:connector-curvature="0"
         id="path7182-2"
         d="M 61.547622,117.36187 H 89.846058"
         style="fill:none;stroke:#000000;stroke-width:0.26330197;stroke-linecap:butt;stroke-linejoin:miter;stroke-miterlimit:4;stroke-dasharray:2.10641578, 2.10641578;stroke-dashoffset:0;stroke-opacity:1" />
      <text
         transform="scale(0.9486865,1.054089)"
         xml:space="preserve"
         style="font-style:normal;font-weight:normal;font-size:4.79644203px;line-height:1.25;font-family:sans-serif;letter-spacing:0px;word-spacing:0px;fill:#000000;fill-opacity:1;stroke:none;stroke-width:0.11991104"
         x="71.09713"
         y="103.88996"
         id="text4522-27-3-2-5-4-5"><tspan
           sodipodi:role="line"
           id="tspan4520-0-6-0-9-5-4"
           x="71.09713"
           y="103.88996"
           style="stroke-width:0.11991104">PWM 1</tspan></text>
      <text
         transform="scale(0.9486865,1.054089)"
         xml:space="preserve"
         style="font-style:normal;font-weight:normal;font-size:4.79644203px;line-height:1.25;font-family:sans-serif;letter-spacing:0px;word-spacing:0px;fill:#000000;fill-opacity:1;stroke:none;stroke-width:0.11991104"
         x="70.850159"
         y="117.87696"
         id="text4522-27-3-2-5-4-5-7"><tspan
           sodipodi:role="line"
           id="tspan4520-0-6-0-9-5-4-4"
           x="70.850159"
           y="117.87696"
           style="stroke-width:0.11991104">PWM 4</tspan></text>
      <path
         inkscape:connector-curvature="0"
         id="path7182-2-9"
         d="m 61.543362,112.45519 h 28.29844"
         style="fill:none;stroke:#000000;stroke-width:0.26330197;stroke-linecap:butt;stroke-linejoin:miter;stroke-miterlimit:4;stroke-dasharray:2.1064158, 2.1064158;stroke-dashoffset:0;stroke-opacity:1" />
      <path
         style="fill:none;stroke:#000000;stroke-width:0.16500001;stroke-linecap:butt;stroke-linejoin:miter;stroke-miterlimit:4;stroke-dasharray:3.96, 3.96;stroke-dashoffset:0;stroke-opacity:1"
         d="m -118.04716,43.09378 c 0.59656,1.03327 0,138.98016 0,138.98016"
         id="path9390"
         inkscape:connector-curvature="0" />
    </g>
    <path
       style="fill:none;fill-rule:evenodd;stroke:#000000;stroke-width:0.26458332px;stroke-linecap:butt;stroke-linejoin:miter;stroke-opacity:1;marker-end:url(#marker7416)"
       d="M 96.885203,-129.82943 H 108.24416"
       id="path7406"
       inkscape:connector-type="polyline"
       inkscape:connector-curvature="0"
       inkscape:export-xdpi="300.02121"
       inkscape:export-ydpi="300.02121" />
    <path
       style="fill:none;fill-rule:evenodd;stroke:#000000;stroke-width:0.26458332px;stroke-linecap:butt;stroke-linejoin:miter;stroke-opacity:1;marker-end:url(#marker7416-8)"
       d="m 139.16755,-129.9577 h 11.35896"
       id="path7406-4"
       inkscape:connector-type="polyline"
       inkscape:connector-curvature="0"
       inkscape:export-xdpi="300.02121"
       inkscape:export-ydpi="300.02121" />
    <path
       style="fill:none;fill-rule:evenodd;stroke:#000000;stroke-width:0.26458332px;stroke-linecap:butt;stroke-linejoin:miter;stroke-opacity:1;marker-end:url(#marker7416-8-3)"
       d="m 181.88921,-129.83504 h 11.35896"
       id="path7406-4-4"
       inkscape:connector-type="polyline"
       inkscape:connector-curvature="0"
       inkscape:export-xdpi="300.02121"
       inkscape:export-ydpi="300.02121" />
    <ellipse
       id="path10-1-9-0"
       cx="38.052322"
       cy="-79.502075"
       rx="15.119047"
       ry="8.4099703"
       style="fill:none;fill-opacity:1;stroke:#000000;stroke-width:0.26458332;stroke-opacity:1"
       inkscape:export-xdpi="300.02121"
       inkscape:export-ydpi="300.02121" />
    <text
       xml:space="preserve"
       style="font-style:normal;font-weight:normal;font-size:5.9496479px;line-height:1.25;font-family:sans-serif;letter-spacing:0px;word-spacing:0px;fill:#000000;fill-opacity:1;stroke:none;stroke-width:0.14874119"
       x="30.854046"
       y="-75.17408"
       id="text4522-27-3-6"
       transform="scale(0.97280326,1.0279571)"
       inkscape:export-xdpi="300.02121"
       inkscape:export-ydpi="300.02121"><tspan
         sodipodi:role="line"
         id="tspan4520-0-6-8"
         x="30.854046"
         y="-75.17408"
         style="stroke-width:0.14874119">COAP</tspan></text>
    <flowRoot
       xml:space="preserve"
       id="flowRoot9208"
       style="fill:black;fill-opacity:1;stroke:none;font-family:sans-serif;font-style:normal;font-weight:normal;font-size:40px;line-height:1.25;letter-spacing:0px;word-spacing:0px"><flowRegion
         id="flowRegion9210"><rect
           id="rect9212"
           width="47.857143"
           height="41.07143"
           x="-84.64286"
           y="-340.33746" /></flowRegion><flowPara
         id="flowPara9214"></flowPara></flowRoot>    <path
       style="fill:none;fill-rule:evenodd;stroke:#000000;stroke-width:0.26458332px;stroke-linecap:butt;stroke-linejoin:miter;stroke-opacity:1"
       d="m 53.387087,-179.40793 14.566225,49.38341"
       id="path9356"
       inkscape:connector-type="polyline"
       inkscape:connector-curvature="0"
       inkscape:export-xdpi="300.02121"
       inkscape:export-ydpi="300.02121" />
    <path
       style="fill:none;fill-rule:evenodd;stroke:#000000;stroke-width:0.26458332px;stroke-linecap:butt;stroke-linejoin:miter;stroke-opacity:1"
       d="m 53.253451,-159.42954 14.699861,29.40502"
       id="path9358"
       inkscape:connector-type="polyline"
       inkscape:connector-curvature="0"
       inkscape:export-xdpi="300.02121"
       inkscape:export-ydpi="300.02121" />
    <path
       style="fill:none;fill-rule:evenodd;stroke:#000000;stroke-width:0.26458332px;stroke-linecap:butt;stroke-linejoin:miter;stroke-opacity:1"
       d="m 53.387087,-139.71841 14.566225,9.69389"
       id="path9360"
       inkscape:connector-type="polyline"
       inkscape:connector-curvature="0"
       inkscape:export-xdpi="300.02121"
       inkscape:export-ydpi="300.02121" />
    <path
       style="fill:none;fill-rule:evenodd;stroke:#000000;stroke-width:0.26458332px;stroke-linecap:butt;stroke-linejoin:miter;stroke-opacity:1"
       d="m 53.253451,-119.74001 14.699861,-10.28451"
       id="path9362"
       inkscape:connector-type="polyline"
       inkscape:connector-curvature="0"
       inkscape:export-xdpi="300.02121"
       inkscape:export-ydpi="300.02121" />
    <path
       style="fill:none;fill-rule:evenodd;stroke:#000000;stroke-width:0.26458332px;stroke-linecap:butt;stroke-linejoin:miter;stroke-opacity:1"
       d="M 53.320269,-99.227075 67.953312,-130.02452"
       id="path9364"
       inkscape:connector-type="polyline"
       inkscape:connector-curvature="0"
       inkscape:export-xdpi="300.02121"
       inkscape:export-ydpi="300.02121" />
    <path
       style="fill:none;fill-rule:evenodd;stroke:#000000;stroke-width:0.26458332px;stroke-linecap:butt;stroke-linejoin:miter;stroke-opacity:1"
       d="M 53.222418,-79.401534 68.189547,-129.77647"
       id="path9366"
       inkscape:connector-type="polyline"
       inkscape:connector-curvature="0"
       inkscape:export-xdpi="300.02121"
       inkscape:export-ydpi="300.02121" />
    <path
       style="fill:none;stroke:#000000;stroke-width:0.16500001;stroke-linecap:butt;stroke-linejoin:miter;stroke-miterlimit:4;stroke-dasharray:3.96000004, 3.96000004;stroke-dashoffset:0;stroke-opacity:1"
       d="m 186.0207,-201.31529 c 0.59656,1.03327 0,138.98016 0,138.98016"
       id="path9390-5"
       inkscape:connector-curvature="0"
       inkscape:export-xdpi="300.02121"
       inkscape:export-ydpi="300.02121" />
    <text
       xml:space="preserve"
       style="font-style:normal;font-weight:normal;font-size:7.04964685px;line-height:1.25;font-family:sans-serif;letter-spacing:0px;word-spacing:0px;fill:#000000;fill-opacity:1;stroke:none;stroke-width:0.17624116"
       x="-53.05901"
       y="-65.368668"
       id="text9411"
       inkscape:export-xdpi="300.02121"
       inkscape:export-ydpi="300.02121"><tspan
         sodipodi:role="line"
         id="tspan9409"
         x="-53.05901"
         y="-65.368668"
         style="font-style:italic;font-variant:normal;font-weight:normal;font-stretch:normal;font-family:sans-serif;-inkscape-font-specification:'sans-serif Italic';stroke-width:0.17624116">CONTROLADORES</tspan></text>
    <text
       xml:space="preserve"
       style="font-style:normal;font-weight:normal;font-size:7.04964685px;line-height:1.25;font-family:sans-serif;letter-spacing:0px;word-spacing:0px;fill:#000000;fill-opacity:1;stroke:none;stroke-width:0.17624116"
       x="143.34088"
       y="-65.368668"
       id="text9411-6"
       inkscape:export-xdpi="300.02121"
       inkscape:export-ydpi="300.02121"><tspan
         sodipodi:role="line"
         id="tspan9409-5"
         x="143.34088"
         y="-65.368668"
         style="font-style:italic;font-variant:normal;font-weight:normal;font-stretch:normal;font-family:sans-serif;-inkscape-font-specification:'sans-serif Italic';stroke-width:0.17624116">SERVICIOS</tspan><tspan
         sodipodi:role="line"
         x="143.34088"
         y="-56.55661"
         style="font-style:italic;font-variant:normal;font-weight:normal;font-stretch:normal;font-family:sans-serif;-inkscape-font-specification:'sans-serif Italic';stroke-width:0.17624116"
         id="tspan9435" /></text>
    <rect
       style="fill:none;fill-opacity:1;stroke:#000000;stroke-width:0.26499999;stroke-miterlimit:4;stroke-dasharray:none;stroke-opacity:1"
       id="rect6669-4"
       width="2.6726952"
       height="34.210499"
       x="-34.994045"
       y="-295.72763"
       inkscape:export-xdpi="300"
       inkscape:export-ydpi="300" />
    <rect
       style="fill:none;fill-opacity:1;stroke:#000000;stroke-width:0.26499999;stroke-miterlimit:4;stroke-dasharray:none;stroke-opacity:1"
       id="rect6669-9-1"
       width="2.6726952"
       height="34.210499"
       x="-30.383692"
       y="-295.72763"
       inkscape:export-xdpi="300"
       inkscape:export-ydpi="300" />
    <rect
       style="fill:none;fill-opacity:1;stroke:#000000;stroke-width:0.26499999;stroke-miterlimit:4;stroke-dasharray:none;stroke-opacity:1"
       id="rect6669-9-4-0"
       width="2.6726952"
       height="34.210499"
       x="-25.773218"
       y="-295.72763"
       inkscape:export-xdpi="300"
       inkscape:export-ydpi="300" />
    <rect
       style="fill:none;fill-opacity:1;stroke:#000000;stroke-width:0.26499999;stroke-miterlimit:4;stroke-dasharray:none;stroke-opacity:1"
       id="rect6669-9-7-4"
       width="2.6726952"
       height="34.210499"
       x="-21.162867"
       y="-295.72763"
       inkscape:export-xdpi="300"
       inkscape:export-ydpi="300" />
    <rect
       style="fill:none;fill-opacity:1;stroke:#000000;stroke-width:0.26499999;stroke-miterlimit:4;stroke-dasharray:none;stroke-opacity:1"
       id="rect6669-9-8-8"
       width="2.6726952"
       height="34.210499"
       x="-16.552391"
       y="-295.72763"
       inkscape:export-xdpi="300"
       inkscape:export-ydpi="300" />
    <text
       xml:space="preserve"
       style="font-style:normal;font-weight:normal;font-size:3.39396501px;line-height:1.25;font-family:sans-serif;letter-spacing:0px;word-spacing:0px;fill:#000000;fill-opacity:1;stroke:none;stroke-width:0.0848491"
       x="-35.604885"
       y="-296.94022"
       id="text6883-7"
       inkscape:export-xdpi="300"
       inkscape:export-ydpi="300"><tspan
         sodipodi:role="line"
         id="tspan6881-0"
         x="-35.604885"
         y="-296.94022"
         style="stroke-width:0.0848491">EventUpdate</tspan></text>
    <ellipse
       style="fill:none;fill-opacity:1;stroke:#000000;stroke-width:0.26458332;stroke-opacity:1"
       ry="8.4099703"
       rx="15.119047"
       cy="-289.85837"
       cx="55.007938"
       id="path10-1-0-6-7-5-8"
       inkscape:export-xdpi="300"
       inkscape:export-ydpi="300" />
    <text
       transform="scale(0.9486865,1.054089)"
       xml:space="preserve"
       style="font-style:normal;font-weight:normal;font-size:3.29811335px;line-height:1.25;font-family:sans-serif;letter-spacing:0px;word-spacing:0px;fill:#000000;fill-opacity:1;stroke:none;stroke-width:0.08245283"
       x="44.463535"
       y="-275.15659"
       id="text4522-27-3-2-5-6-6"
       inkscape:export-xdpi="300"
       inkscape:export-ydpi="300"><tspan
         sodipodi:role="line"
         x="44.463535"
         y="-275.15659"
         style="line-height:1;stroke-width:0.08245283"
         id="tspan10148">ACTUALIZACIÓN</tspan><tspan
         sodipodi:role="line"
         x="44.463535"
         y="-271.03394"
         style="line-height:1;stroke-width:0.08245283"
         id="tspan17253">      KALMAN</tspan></text>
    <ellipse
       style="fill:none;fill-opacity:1;stroke:#000000;stroke-width:0.26458332;stroke-opacity:1"
       ry="8.4099703"
       rx="15.119047"
       cy="-268.67593"
       cx="55.324795"
       id="path10-1-0-6-7-5-8-9"
       inkscape:export-xdpi="300"
       inkscape:export-ydpi="300" />
    <text
       transform="scale(0.9486865,1.054089)"
       xml:space="preserve"
       style="font-style:normal;font-weight:normal;font-size:3.20903087px;line-height:1;font-family:sans-serif;letter-spacing:0px;word-spacing:0px;fill:#000000;fill-opacity:1;stroke:none;stroke-width:0.08022577"
       x="46.141125"
       y="-255.02113"
       id="text4522-27-3-2-5-6-6-2"
       inkscape:export-xdpi="300"
       inkscape:export-ydpi="300"><tspan
         sodipodi:role="line"
         x="46.141125"
         y="-255.02113"
         style="line-height:1;stroke-width:0.08022577"
         id="tspan17259">ACTUALIZACIÓN</tspan><tspan
         sodipodi:role="line"
         x="46.141125"
         y="-251.8121"
         style="line-height:1;stroke-width:0.08022577"
         id="tspan17265">  OBJ. ACTITUD</tspan></text>
    <path
       style="fill:none;fill-rule:evenodd;stroke:#000000;stroke-width:0.23247328px;stroke-linecap:butt;stroke-linejoin:miter;stroke-opacity:1;marker-end:url(#marker10862)"
       d="m 11.634598,-290.23327 27.731621,0.0473"
       id="path11600"
       inkscape:connector-type="polyline"
       inkscape:connector-curvature="0"
       inkscape:export-xdpi="300"
       inkscape:export-ydpi="300" />
    <path
       style="fill:none;fill-rule:evenodd;stroke:#000000;stroke-width:0.26458332px;stroke-linecap:butt;stroke-linejoin:miter;stroke-opacity:1;marker-end:url(#marker10862-0)"
       d="m 11.073118,-268.32245 28.253719,0.0473"
       id="path11600-7"
       inkscape:connector-type="polyline"
       inkscape:connector-curvature="0"
       inkscape:export-xdpi="300"
       inkscape:export-ydpi="300" />
    <text
       xml:space="preserve"
       style="font-style:normal;font-weight:normal;font-size:4.23333333px;line-height:1;font-family:sans-serif;letter-spacing:0px;word-spacing:0px;fill:#000000;fill-opacity:1;stroke:none;stroke-width:0.26458332;"
       x="14.741072"
       y="-269.68079"
       id="text12189"><tspan
         sodipodi:role="line"
         id="tspan12187"
         x="14.741072"
         y="-261.63992"
         style="stroke-width:0.26458332;font-size:4.23333333px;" /></text>
    <text
       xml:space="preserve"
       style="font-style:normal;font-weight:normal;font-size:10.58333302px;line-height:1;font-family:sans-serif;letter-spacing:0px;word-spacing:0px;fill:#000000;fill-opacity:1;stroke:none;stroke-width:0.26458332"
       x="11.339285"
       y="-270.24777"
       id="text12193"
       inkscape:export-xdpi="300"
       inkscape:export-ydpi="300"><tspan
         sodipodi:role="line"
         id="tspan12191"
         x="11.339285"
         y="-270.24777"
         style="font-size:3.52777767px;stroke-width:0.26458332">Joystick</tspan></text>
    <text
       xml:space="preserve"
       style="font-style:normal;font-weight:normal;font-size:3.52777767px;line-height:1;font-family:sans-serif;letter-spacing:0px;word-spacing:0px;fill:#000000;fill-opacity:1;stroke:none;stroke-width:0.26458332"
       x="11.339286"
       y="-299.35193"
       id="text12197"
       inkscape:export-xdpi="300"
       inkscape:export-ydpi="300"><tspan
         sodipodi:role="line"
         x="11.339286"
         y="-299.35193"
         style="stroke-width:0.26458332"
         id="tspan12199">IMU</tspan><tspan
         sodipodi:role="line"
         x="11.339286"
         y="-295.82416"
         style="stroke-width:0.26458332"
         id="tspan12203">Laser</tspan><tspan
         sodipodi:role="line"
         x="11.339286"
         y="-292.29639"
         style="stroke-width:0.26458332"
         id="tspan12205">Barómetro</tspan></text>
    <text
       xml:space="preserve"
       style="font-style:normal;font-weight:normal;font-size:3.52777767px;line-height:1;font-family:sans-serif;letter-spacing:0px;word-spacing:0px;fill:#000000;fill-opacity:1;stroke:none;stroke-width:0.26458332"
       x="20.883184"
       y="-320.99106"
       id="text12209"><tspan
         sodipodi:role="line"
         id="tspan12207"
         x="20.883184"
         y="-318.31076"
         style="stroke-width:0.26458332"></tspan></text>
    <ellipse
       style="fill:none;fill-opacity:1;stroke:#000000;stroke-width:0.26458332;stroke-opacity:1"
       ry="8.4099703"
       rx="15.119047"
       cy="-278.80048"
       cx="126.81199"
       id="path10-1-0-6-7-5-8-2"
       inkscape:export-xdpi="300"
       inkscape:export-ydpi="300" />
    <text
       transform="scale(0.9486865,1.054089)"
       xml:space="preserve"
       style="font-style:normal;font-weight:normal;font-size:4.77241182px;line-height:1.25;font-family:sans-serif;letter-spacing:0px;word-spacing:0px;fill:#000000;fill-opacity:1;stroke:none;stroke-width:0.11931029"
       x="122.7852"
       y="-262.71509"
       id="text4522-27-3-2-5-6-6-5"
       inkscape:export-xdpi="300"
       inkscape:export-ydpi="300"><tspan
         sodipodi:role="line"
         x="122.7852"
         y="-262.71509"
         style="line-height:1;stroke-width:0.11931029"
         id="tspan10148-4">Filtro PID</tspan></text>
    <text
       xml:space="preserve"
       style="font-style:normal;font-weight:normal;font-size:3.52777767px;line-height:1;font-family:sans-serif;letter-spacing:0px;word-spacing:0px;fill:#000000;fill-opacity:1;stroke:none;stroke-width:0.26458332"
       x="75.684052"
       y="-291.09985"
       id="text12530"
       inkscape:export-xdpi="300"
       inkscape:export-ydpi="300"><tspan
         sodipodi:role="line"
         id="tspan12528"
         x="75.684052"
         y="-291.09985"
         style="stroke-width:0.26458332">Actitud</tspan></text>
    <text
       xml:space="preserve"
       style="font-style:normal;font-weight:normal;font-size:3.52777767px;line-height:1;font-family:sans-serif;letter-spacing:0px;word-spacing:0px;fill:#000000;fill-opacity:1;stroke:none;stroke-width:0.26458332"
       x="76.77317"
       y="-290.99295"
       id="text12534"><tspan
         sodipodi:role="line"
         id="tspan12532"
         x="76.77317"
         y="-288.31265"
         style="stroke-width:0.26458332" /></text>
    <text
       xml:space="preserve"
       style="font-style:normal;font-weight:normal;font-size:3.52777767px;line-height:1;font-family:sans-serif;letter-spacing:0px;word-spacing:0px;fill:#000000;fill-opacity:1;stroke:none;stroke-width:0.26458332"
       x="75.022552"
       y="-265.1814"
       id="text12538"
       inkscape:export-xdpi="300"
       inkscape:export-ydpi="300"><tspan
         sodipodi:role="line"
         id="tspan12536"
         x="75.022552"
         y="-265.1814"
         style="stroke-width:0.26458332">Objetivo</tspan></text>
    <g
       id="g12751"
       transform="translate(2.6600075,2.858445)"
       inkscape:export-xdpi="300"
       inkscape:export-ydpi="300">
      <circle
         r="4.0442038"
         cy="-282.10559"
         cx="92.653"
         id="path12561"
         style="fill:none;fill-opacity:1;stroke:#000000;stroke-width:0.16201463;stroke-miterlimit:4;stroke-dasharray:none;stroke-dashoffset:0;stroke-opacity:1" />
      <path
         inkscape:connector-curvature="0"
         id="path12563"
         d="m 92.561082,-286.14979 v 8.04756"
         style="fill:none;stroke:#000000;stroke-width:0.16175988px;stroke-linecap:butt;stroke-linejoin:miter;stroke-opacity:1" />
      <path
         inkscape:connector-curvature="0"
         id="path12565"
         d="m 88.598582,-282.09538 h 8.057762"
         style="fill:none;stroke:#000000;stroke-width:0.16175988px;stroke-linecap:butt;stroke-linejoin:miter;stroke-opacity:1" />
    </g>
    <path
       style="fill:none;fill-rule:evenodd;stroke:#000000;stroke-width:0.26458332px;stroke-linecap:butt;stroke-linejoin:miter;stroke-opacity:1"
       d="m 70.321327,-268.53585 24.922885,0.10022"
       id="path12715-5"
       inkscape:connector-type="polyline"
       inkscape:connector-curvature="0"
       inkscape:export-xdpi="300"
       inkscape:export-ydpi="300" />
    <path
       style="fill:none;fill-rule:evenodd;stroke:#000000;stroke-width:0.26495436px;stroke-linecap:butt;stroke-linejoin:miter;stroke-opacity:1"
       d="m 70.187323,-290.12289 24.994527,0.10022"
       id="path12715-5-3"
       inkscape:connector-type="polyline"
       inkscape:connector-curvature="0"
       inkscape:export-xdpi="300"
       inkscape:export-ydpi="300" />
    <path
       style="fill:none;fill-rule:evenodd;stroke:#000000;stroke-width:0.26458332px;stroke-linecap:butt;stroke-linejoin:miter;stroke-opacity:1;marker-end:url(#marker12410)"
       d="m 95.275382,-290.14697 -0.05748,6.25268"
       id="path12801"
       inkscape:connector-type="polyline"
       inkscape:connector-curvature="0"
       inkscape:export-xdpi="300"
       inkscape:export-ydpi="300" />
    <path
       style="fill:none;fill-rule:evenodd;stroke:#000000;stroke-width:0.26458332px;stroke-linecap:butt;stroke-linejoin:miter;stroke-opacity:1;marker-end:url(#marker12410-5)"
       d="m 95.11192,-268.30747 0.0575,-6.25268"
       id="path12801-0"
       inkscape:connector-type="polyline"
       inkscape:connector-curvature="0"
       inkscape:export-xdpi="300"
       inkscape:export-ydpi="300" />
    <text
       xml:space="preserve"
       style="font-style:normal;font-weight:normal;font-size:2.7365005px;line-height:1;font-family:sans-serif;letter-spacing:0px;word-spacing:0px;fill:#000000;fill-opacity:1;stroke:none;stroke-width:0.20523752"
       x="96.226814"
       y="-273.27628"
       id="text13784"
       inkscape:export-xdpi="300"
       inkscape:export-ydpi="300"><tspan
         sodipodi:role="line"
         id="tspan13782"
         x="96.226814"
         y="-273.27628"
         style="stroke-width:0.20523752">+</tspan></text>
    <text
       xml:space="preserve"
       style="font-style:normal;font-weight:normal;font-size:4.92261934px;line-height:1;font-family:sans-serif;letter-spacing:0px;word-spacing:0px;fill:#000000;fill-opacity:1;stroke:none;stroke-width:0.36919641"
       x="77.280312"
       y="-352.26065"
       id="text13788"
       transform="scale(1.2450053,0.80320943)"
       inkscape:export-xdpi="300"
       inkscape:export-ydpi="300"><tspan
         sodipodi:role="line"
         id="tspan13786"
         x="77.280312"
         y="-352.26065"
         style="stroke-width:0.36919641">-</tspan></text>
    <path
       style="display:inline;fill:none;fill-rule:evenodd;stroke:#000000;stroke-width:0.26458332px;stroke-linecap:butt;stroke-linejoin:miter;stroke-opacity:1;marker-end:url(#marker12410-5-8)"
       d="m 99.845518,-279.23694 11.395752,0.008"
       id="path12801-0-9"
       inkscape:connector-type="polyline"
       inkscape:connector-curvature="0"
       inkscape:export-xdpi="300"
       inkscape:export-ydpi="300" />
    <path
       style="display:inline;fill:none;fill-rule:evenodd;stroke:#000000;stroke-width:0.32871601px;stroke-linecap:butt;stroke-linejoin:miter;stroke-opacity:1;marker-end:url(#marker12410-5-8-9)"
       d="m 141.98501,-278.76935 22.58156,0.007"
       id="path12801-0-9-8"
       inkscape:connector-type="polyline"
       inkscape:connector-curvature="0"
       inkscape:export-xdpi="300"
       inkscape:export-ydpi="300" />
    <text
       xml:space="preserve"
       style="font-style:normal;font-weight:normal;font-size:3.52777767px;line-height:1;font-family:sans-serif;letter-spacing:0px;word-spacing:0px;fill:#000000;fill-opacity:1;stroke:none;stroke-width:0.26458332"
       x="148.10529"
       y="-279.6936"
       id="text14970"
       inkscape:export-xdpi="300"
       inkscape:export-ydpi="300"><tspan
         sodipodi:role="line"
         id="tspan14968"
         x="148.10529"
         y="-279.6936"
         style="stroke-width:0.26458332">PWM</tspan></text>
    <rect
       style="fill:none;fill-opacity:1;stroke:#000000;stroke-width:0.27401128;stroke-miterlimit:4;stroke-dasharray:6.57627041, 6.57627041;stroke-dashoffset:0;stroke-opacity:1"
       id="rect15360"
       width="169.61127"
       height="67.592033"
       x="3.3117971"
       y="-315.37366"
       inkscape:export-xdpi="300"
       inkscape:export-ydpi="300" />
    <path
       style="fill:none;fill-rule:evenodd;stroke:#000000;stroke-width:0.26221302px;stroke-linecap:butt;stroke-linejoin:miter;stroke-opacity:1;marker-end:url(#marker15752)"
       d="m -13.853875,-278.59902 14.12357515,-0.036"
       id="path15742"
       inkscape:connector-type="polyline"
       inkscape:connector-curvature="0"
       inkscape:export-xdpi="300"
       inkscape:export-ydpi="300" />
    <text
       xml:space="preserve"
       style="font-style:normal;font-weight:normal;font-size:7.04964685px;line-height:1.25;font-family:sans-serif;letter-spacing:0px;word-spacing:0px;fill:#000000;fill-opacity:1;stroke:none;stroke-width:0.17624116"
       x="4.7872677"
       y="-249.2323"
       id="text9411-6-2"
       inkscape:export-xdpi="300"
       inkscape:export-ydpi="300"><tspan
         sodipodi:role="line"
         id="tspan9409-5-5"
         x="4.7872677"
         y="-249.2323"
         style="font-style:italic;font-variant:normal;font-weight:normal;font-stretch:normal;font-family:sans-serif;-inkscape-font-specification:'sans-serif Italic';stroke-width:0.17624116">MITM</tspan><tspan
         sodipodi:role="line"
         x="4.7872677"
         y="-240.42024"
         style="font-style:italic;font-variant:normal;font-weight:normal;font-stretch:normal;font-family:sans-serif;-inkscape-font-specification:'sans-serif Italic';stroke-width:0.17624116"
         id="tspan9435-3" /></text>
    <text
       xml:space="preserve"
       style="font-style:normal;font-weight:normal;font-size:3.52777767px;line-height:1;font-family:sans-serif;letter-spacing:0px;word-spacing:0px;fill:#000000;fill-opacity:1;stroke:none;stroke-width:0.26458332"
       x="84.269791"
       y="-265.90103"
       id="text17271"><tspan
         sodipodi:role="line"
         id="tspan17269"
         x="84.269791"
         y="-263.22073"
         style="stroke-width:0.26458332" /></text>
    <text
       xml:space="preserve"
       style="font-style:normal;font-weight:normal;font-size:3.52777767px;line-height:1;font-family:sans-serif;letter-spacing:0px;word-spacing:0px;fill:#000000;fill-opacity:1;stroke:none;stroke-width:0.26458332"
       x="101.07083"
       y="-281.51147"
       id="text17275"
       inkscape:export-xdpi="300"
       inkscape:export-ydpi="300"><tspan
         sodipodi:role="line"
         id="tspan17273"
         x="101.07083"
         y="-281.51147"
         style="stroke-width:0.26458332">Error</tspan></text>
    <text
       xml:space="preserve"
       style="font-style:normal;font-weight:normal;font-size:7.04964685px;line-height:1.25;font-family:sans-serif;letter-spacing:0px;word-spacing:0px;fill:#000000;fill-opacity:1;stroke:none;stroke-width:0.17624116"
       x="190.19199"
       y="-65.368668"
       id="text9411-4"
       inkscape:export-xdpi="300.02121"
       inkscape:export-ydpi="300.02121"><tspan
         sodipodi:role="line"
         id="tspan9409-9"
         x="190.19199"
         y="-65.368668"
         style="font-style:italic;font-variant:normal;font-weight:normal;font-stretch:normal;font-family:sans-serif;-inkscape-font-specification:'sans-serif Italic';stroke-width:0.17624116">CONTROLADORES</tspan></text>
  </g>
</svg>
